…
papers <- read_rds(file_papers)
subfield_counts <- read_rds(file_subfield_counts)
```

## Primary categories

``` r
papers %>% 
  count(primary_category, sort = TRUE)
```

    ## # A tibble: 147 x 2
    ##    primary_category     n
    ##    <chr>            <int>
    ##  1 cs.CV            24612
    ##  2 cs.LG            21803
    ##  3 cs.CL            11952
    ##  4 cs.AI             9990
    ##  5 stat.ML           8789
    ##  6 cs.RO             5766
    ##  7 cs.NE             3350
    ##  8 cs.IR             1382
    ##  9 math.OC           1235
    ## 10 eess.IV           1122
    ## # … with 137 more rows
…
