…
sota <- read_rds(file_sota)
```

## What does each row represent?

One paper can have multiple rows.

``` r
sota %>% 
  count(paper_id, benchmark_id, sort = TRUE)
```

    ## # A tibble: 1,217 x 3
    ##    paper_id benchmark_id     n
    ##       <dbl>        <dbl> <int>
    ##  1      377          226     6
    ##  2      378          226     6
    ##  3      379          226     6
    ##  4      380          226     6
    ##  5     1001          599     5
    ##  6     1002          599     5
    ##  7     1003          599     5
    ##  8     1004          599     5
    ##  9     1005          599     5
    ## 10      125           72     4
    ## # … with 1,207 more rows

One paper/model combo can also have multiple rows.

``` r
sota %>% 
  count(paper_id, model_name, sort = TRUE)
```

    ## # A tibble: 1,217 x 3
    ##    paper_id model_name                       n
    ##       <dbl> <chr>                        <int>
    ##  1      377 DNN                              6
    ##  2      378 4th year cardiology resident     6
    ##  3      379 5th year medical student         6
    ##  4      380 3rd year emergency resident      6
    ##  5     1001 DGC-Net aff+tps+homo             5
    ##  6     1002 PWC-Net                          5
    ##  7     1003 DeepMatching*                    5
    ##  8     1004 FlowNet2                         5
    ##  9     1005 SPyNet                           5
    ## 10      125 UMX                              4
    ## # … with 1,207 more rows

Each row represents a paper-metric combination.

``` r
sota %>% 
  select(index, paper_id, metric_name) %>% 
  unnest(cols = metric_name) %>% 
  count(paper_id, metric_name, sort = TRUE)
```

    ## # A tibble: 989 x 3
    ##    paper_id metric_name        n
    ##       <dbl> <chr>          <int>
    ##  1        0 Sequence error     1
    ##  2        1 Sequence error     1
    ##  3        2 Sequence error     1
    ##  4        3 Average PSNR       1
    ##  5        4 Average PSNR       1
    ##  6        8 RMSE               1
    ##  7        9 RMS                1
    ##  8       16 AUC                1
    ##  9       17 P@1                1
    ## 10       19 PSNR               1
    ## # … with 979 more rows
…
## Benchmarks

``` r
sota %>% 
  count(benchmark_id, sort = TRUE)
```

    ## # A tibble: 726 x 2
    ##    benchmark_id     n
    ##           <dbl> <int>
    ##  1          268    38
    ##  2          138    30
    ##  3          201    30
    ##  4          395    27
    ##  5          599    25
    ##  6           40    24
    ##  7          226    24
    ##  8          687    24
    ##  9           29    19
    ## 10          197    19
    ## # … with 716 more rows
…
    ## # A tibble: 3 x 2
    ##   n_categories     n
    ##          <int> <int>
    ## 1            1  1453
    ## 2            2    40
    ## 3            3     5

## Tasks

``` r
sota %>% 
  count(task, sort = TRUE)
```

    ## # A tibble: 726 x 2
    ##    task                                      n
    ##    <chr>                                 <int>
    ##  1 Ad-Hoc Information Retrieval             38
    ##  2 Dependency Parsing                       30
    ##  3 Language Modelling                       30
    ##  4 Text Summarization                       27
    ##  5 Dense Pixel Correspondence Estimation    25
    ##  6 ECG Classification                       24
    ##  7 Hypernym Discovery                       24
    ##  8 Mortality Prediction                     24
    ##  9 Semantic Textual Similarity              19
    ## 10 Speech Recognition                       19
    ## # … with 716 more rows

## Benchmarks

``` r
sota %>% 
  count(benchmark_id, sort = TRUE)
```

    ## # A tibble: 726 x 2
    ##    benchmark_id     n
    ##           <dbl> <int>
    ##  1          268    38
    ##  2          138    30
    ##  3          201    30
    ##  4          395    27
    ##  5          599    25
    ##  6           40    24
    ##  7          226    24
    ##  8          687    24
    ##  9           29    19
    ## 10          197    19
    ## # … with 716 more rows
…
