…
``` r
citations %>% 
  drop_na(citations) %>% 
  count(citations, sort = TRUE) %>% 
  mutate(prop = round(n / sum(n) * 100, 3))
```

    ## # A tibble: 667 x 3
    ##    citations     n  prop
    ##        <int> <int> <dbl>
    ##  1         0 39781 39.2 
    ##  2         1 13577 13.4 
    ##  3         2  8292  8.16
    ##  4         3  5700  5.61
    ##  5         4  4086  4.02
    ##  6         5  3135  3.08
    ##  7         6  2514  2.47
    ##  8         7  2102  2.07
    ##  9         8  1699  1.67
    ## 10         9  1563  1.54
    ## # … with 657 more rows
…
