…
    ## [1] TRUE

Some benchmarks are associated with multiple metrics.

``` r
sota %>% 
  group_by(benchmark_id, task) %>% 
  summarize(num_metrics = n_distinct(metric_name, na.rm = TRUE)) %>% 
  ungroup() %>% 
  arrange(desc(num_metrics))
```

    ## # A tibble: 214 x 3
    ##    benchmark_id task                                         num_metrics
    ##           <dbl> <chr>                                              <int>
    ##  1          226 ECG Classification                                     6
    ##  2          599 Dense Pixel Correspondence Estimation                  5
    ##  3           72 Music Source Separation                                4
    ##  4           93 Image Inpainting                                       4
    ##  5          109 Text Generation                                        4
    ##  6          411 Recommendation Systems                                 4
    ##  7          667 Relationship Extraction (Distant Supervised)           4
    ##  8           26 Image-to-Image Translation                             3
    ##  9           34 Text-To-Speech Synthesis                               3
    ## 10           40 Hypernym Discovery                                     3
    ## # … with 204 more rows
…
  group_by(task) %>% 
  filter(any(percent_change < 0)) %>% 
  ungroup() %>% 
  select(
    paper_id, 
    paper_date, 
    task, 
    metric_name, 
    metric_result, 
    percent_change
  ) %>% 
  arrange(task, metric_name, paper_date)
```

    ## # A tibble: 74 x 6
    ##    paper_id paper_date          task    metric_name metric_result percent_change
    ##       <dbl> <dttm>              <chr>   <chr>               <dbl>          <dbl>
    ##  1     1207 2019-07-26 00:00:00 3D Abs… MPJPE               54.4          -2395.
    ##  2       87 2016-01-30 00:00:00 3D Hum… Average MP…         99            -4441.
    ##  3       86 2017-09-04 00:00:00 3D Hum… Average MP…         70            -3111.
    ##  4       84 2018-07-04 00:00:00 3D Hum… Average MP…         35            -1506.
    ##  5       82 2019-09-03 00:00:00 3D Hum… Average MP…         29            -1230.
    ##  6       81 2019-12-09 00:00:00 3D Hum… Average MP…         28.9          -1226.
    ##  7     1003 2015-06-25 00:00:00 Dense … Viewpoint …          5.84          -168.
    ##  8     1005 2016-11-03 00:00:00 Dense … Viewpoint …         36.9          -1594.
    ##  9     1004 2016-12-06 00:00:00 Dense … Viewpoint …          5.99          -175.
    ## 10     1002 2017-09-07 00:00:00 Dense … Viewpoint …          4.43          -103.
    ## # … with 64 more rows
…
``` r
sota %>% 
  filter(task %in% tasks) %>% 
  group_by(task, metric_name) %>% 
  filter(any(percent_change < 0)) %>% 
  ungroup() %>% 
  arrange(paper_date) %>% 
  select(paper_title, metric_name, metric_result, percent_change, days_written_after_first_in_benchmark)
```

    ## # A tibble: 25 x 5
    ##    paper_title       metric_name  metric_result percent_change days_written_aft…
    ##    <chr>             <chr>                <dbl>          <dbl>             <dbl>
    ##  1 Speech Recogniti… Percentage …         17.7          -712.                  0
    ##  2 Attention-Based … Percentage …         17.6          -707.                824
    ##  3 Character-level … Error                 1.55           28.9                 0
    ##  4 Supervised and S… Error                 0.84           61.5               156
    ##  5 Segmental Recurr… Percentage …         17.3          -694.               1075
    ##  6 Very Deep Convol… Error                 1.29           40.8               276
    ##  7 Bag of Tricks fo… Error                 1.4            35.8               306
    ##  8 Online and Linea… Percentage …         20.1          -822.               1473
    ##  9 Deep Pyramid Con… Error                 0.88           59.6               666
    ## 10 Learning Context… Error                 1.07           50.9               752
    ## # … with 15 more rows
…
